0,0.9441201090812683
1,0.9641367793083191
2,0.942452073097229
3,0.9608006477355957
4,0.9624687433242798
5,0.941618025302887
6,0.963302731513977
7,0.9708089828491211
8,0.9733110666275024
9,0.9724770784378052
10,0.9724770784378052
11,0.9724770784378052
12,0.9724770784378052
13,0.9741451144218445
14,0.9733110666275024
15,0.9733110666275024
16,0.9724770784378052
17,0.9699749946594238
18,0.9724770784378052
19,0.9724770784378052
20,0.9716430306434631
21,0.9708089828491211
22,0.9691409468650818
23,0.9716430306434631
24,0.9733110666275024
25,0.9724770784378052
26,0.9724770784378052
27,0.9724770784378052
28,0.9716430306434631
29,0.9724770784378052
